%YAML 1.1
%TAG !u! tag:unity3d.com,2011:
--- !u!114 &11400000
MonoBehaviour:
  m_ObjectHideFlags: 0
  m_CorrespondingSourceObject: {fileID: 0}
  m_PrefabInstance: {fileID: 0}
  m_PrefabAsset: {fileID: 0}
  m_GameObject: {fileID: 0}
  m_Enabled: 1
  m_EditorHideFlags: 0
  m_Script: {fileID: 11500000, guid: 5760785f8c0064b44b588ae7fd6fd268, type: 3}
  m_Name: MicroSplatConfig
  m_EditorClassIdentifier: 
  diffuseIsLinear: 0
  antiTileArray: 0
  emisMetalArray: 0
  traxArray: 0
  textureMode: 1
  clusterMode: 0
  packingMode: 0
  pbrWorkflow: 0
  hash: -1794805760
  splatArray: {fileID: 0}
  diffuseArray: {fileID: 18700000, guid: ad5d789d34b9a034ca2583f48471325c, type: 2}
  normalSAOArray: {fileID: 18700000, guid: 0db32cdf1feb00345bbe8b0f724667b2, type: 2}
  smoothAOArray: {fileID: 0}
  specularArray: {fileID: 0}
  diffuseArray2: {fileID: 0}
  normalSAOArray2: {fileID: 0}
  smoothAOArray2: {fileID: 0}
  specularArray2: {fileID: 0}
  diffuseArray3: {fileID: 0}
  normalSAOArray3: {fileID: 0}
  smoothAOArray3: {fileID: 0}
  specularArray3: {fileID: 0}
  emisArray: {fileID: 0}
  emisArray2: {fileID: 0}
  emisArray3: {fileID: 0}
  defaultTextureSettings:
    diffuseSettings:
      textureSize: 2048
      compression: 0
      filterMode: 1
      Aniso: 1
    normalSettings:
      textureSize: 2048
      compression: 0
      filterMode: 2
      Aniso: 1
    smoothSettings:
      textureSize: 1024
      compression: 0
      filterMode: 1
      Aniso: 1
    antiTileSettings:
      textureSize: 1024
      compression: 0
      filterMode: 1
      Aniso: 1
    emissiveSettings:
      textureSize: 1024
      compression: 0
      filterMode: 1
      Aniso: 1
    specularSettings:
      textureSize: 1024
      compression: 0
      filterMode: 1
      Aniso: 1
    traxDiffuseSettings:
      textureSize: 1024
      compression: 0
      filterMode: 1
      Aniso: 1
    traxNormalSettings:
      textureSize: 1024
      compression: 0
      filterMode: 1
      Aniso: 1
    decalSplatSettings:
      textureSize: 1024
      compression: 0
      filterMode: 1
      Aniso: 1
  platformOverrides: []
  sourceTextureSize: 0
  allTextureChannelHeight: 1
  allTextureChannelSmoothness: 1
  allTextureChannelAO: 1
  sourceTextures:
  - substance: {fileID: 1102509358589249118, guid: 041375cfd452b4344967fa0bbf8fb38b,
      type: 3}
    diffuse: {fileID: 3323266860250581589, guid: 041375cfd452b4344967fa0bbf8fb38b,
      type: 3}
    height: {fileID: -4860323574738995193, guid: 041375cfd452b4344967fa0bbf8fb38b,
      type: 3}
    heightChannel: 1
    normal: {fileID: -5630646930554099035, guid: 041375cfd452b4344967fa0bbf8fb38b,
      type: 3}
    smoothness: {fileID: 4839829986632790160, guid: 041375cfd452b4344967fa0bbf8fb38b,
      type: 3}
    smoothnessChannel: 3
    isRoughness: 0
    ao: {fileID: -2197026163115713535, guid: 041375cfd452b4344967fa0bbf8fb38b, type: 3}
    aoChannel: 1
    emis: {fileID: 0}
    metal: {fileID: 4839829986632790160, guid: 041375cfd452b4344967fa0bbf8fb38b, type: 3}
    metalChannel: 1
    specular: {fileID: 0}
    noiseNormal: {fileID: 0}
    detailNoise: {fileID: 0}
    detailChannel: 1
    distanceNoise: {fileID: 0}
    distanceChannel: 1
    traxDiffuse: {fileID: 0}
    traxHeight: {fileID: 0}
    traxHeightChannel: 1
    traxNormal: {fileID: 0}
    traxSmoothness: {fileID: 0}
    traxSmoothnessChannel: 1
    traxIsRoughness: 0
    traxAO: {fileID: 0}
    traxAOChannel: 1
    splat: {fileID: 0}
  - substance: {fileID: 0}
    diffuse: {fileID: 2800000, guid: ae548727ed0abc645ad76b70534ca74f, type: 3}
    height: {fileID: 0}
    heightChannel: 1
    normal: {fileID: 2800000, guid: 78e598f8d69ec7e4cb840837fea58ed0, type: 3}
    smoothness: {fileID: 0}
    smoothnessChannel: 3
    isRoughness: 0
    ao: {fileID: 0}
    aoChannel: 1
    emis: {fileID: 0}
    metal: {fileID: 0}
    metalChannel: 1
    specular: {fileID: 0}
    noiseNormal: {fileID: 0}
    detailNoise: {fileID: 0}
    detailChannel: 1
    distanceNoise: {fileID: 0}
    distanceChannel: 1
    traxDiffuse: {fileID: 0}
    traxHeight: {fileID: 0}
    traxHeightChannel: 1
    traxNormal: {fileID: 0}
    traxSmoothness: {fileID: 0}
    traxSmoothnessChannel: 1
    traxIsRoughness: 0
    traxAO: {fileID: 0}
    traxAOChannel: 1
    splat: {fileID: 0}
  - substance: {fileID: 0}
    diffuse: {fileID: 2800000, guid: 46d8c825d3e58e24db0ef07d82b56c5f, type: 3}
    height: {fileID: 0}
    heightChannel: 1
    normal: {fileID: 0}
    smoothness: {fileID: 0}
    smoothnessChannel: 3
    isRoughness: 0
    ao: {fileID: 0}
    aoChannel: 1
    emis: {fileID: 0}
    metal: {fileID: 0}
    metalChannel: 1
    specular: {fileID: 0}
    noiseNormal: {fileID: 0}
    detailNoise: {fileID: 0}
    detailChannel: 1
    distanceNoise: {fileID: 0}
    distanceChannel: 1
    traxDiffuse: {fileID: 0}
    traxHeight: {fileID: 0}
    traxHeightChannel: 1
    traxNormal: {fileID: 0}
    traxSmoothness: {fileID: 0}
    traxSmoothnessChannel: 1
    traxIsRoughness: 0
    traxAO: {fileID: 0}
    traxAOChannel: 1
    splat: {fileID: 0}
  - substance: {fileID: 1102509358589249118, guid: 8c839d9b3622ad249a25a163ef4aa551,
      type: 3}
    diffuse: {fileID: 3531699930832850883, guid: 8c839d9b3622ad249a25a163ef4aa551,
      type: 3}
    height: {fileID: 0}
    heightChannel: 1
    normal: {fileID: -4428681996180148168, guid: 8c839d9b3622ad249a25a163ef4aa551,
      type: 3}
    smoothness: {fileID: 830566211860623204, guid: 8c839d9b3622ad249a25a163ef4aa551,
      type: 3}
    smoothnessChannel: 3
    isRoughness: 0
    ao: {fileID: 0}
    aoChannel: 1
    emis: {fileID: 0}
    metal: {fileID: 830566211860623204, guid: 8c839d9b3622ad249a25a163ef4aa551, type: 3}
    metalChannel: 1
    specular: {fileID: 0}
    noiseNormal: {fileID: 0}
    detailNoise: {fileID: 0}
    detailChannel: 1
    distanceNoise: {fileID: 0}
    distanceChannel: 1
    traxDiffuse: {fileID: 0}
    traxHeight: {fileID: 0}
    traxHeightChannel: 1
    traxNormal: {fileID: 0}
    traxSmoothness: {fileID: 0}
    traxSmoothnessChannel: 1
    traxIsRoughness: 0
    traxAO: {fileID: 0}
    traxAOChannel: 1
    splat: {fileID: 0}
  sourceTextures2:
  - substance: {fileID: 0}
    diffuse: {fileID: 0}
    height: {fileID: 0}
    heightChannel: 2
    normal: {fileID: 0}
    smoothness: {fileID: 0}
    smoothnessChannel: 3
    isRoughness: 0
    ao: {fileID: 0}
    aoChannel: 1
    emis: {fileID: 0}
    metal: {fileID: 0}
    metalChannel: 1
    specular: {fileID: 0}
    noiseNormal: {fileID: 0}
    detailNoise: {fileID: 0}
    detailChannel: 1
    distanceNoise: {fileID: 0}
    distanceChannel: 1
    traxDiffuse: {fileID: 0}
    traxHeight: {fileID: 0}
    traxHeightChannel: 1
    traxNormal: {fileID: 0}
    traxSmoothness: {fileID: 0}
    traxSmoothnessChannel: 1
    traxIsRoughness: 0
    traxAO: {fileID: 0}
    traxAOChannel: 1
    splat: {fileID: 0}
  - substance: {fileID: 0}
    diffuse: {fileID: 0}
    height: {fileID: 0}
    heightChannel: 1
    normal: {fileID: 0}
    smoothness: {fileID: 0}
    smoothnessChannel: 3
    isRoughness: 0
    ao: {fileID: 0}
    aoChannel: 1
    emis: {fileID: 0}
    metal: {fileID: 0}
    metalChannel: 1
    specular: {fileID: 0}
    noiseNormal: {fileID: 0}
    detailNoise: {fileID: 0}
    detailChannel: 1
    distanceNoise: {fileID: 0}
    distanceChannel: 1
    traxDiffuse: {fileID: 0}
    traxHeight: {fileID: 0}
    traxHeightChannel: 1
    traxNormal: {fileID: 0}
    traxSmoothness: {fileID: 0}
    traxSmoothnessChannel: 1
    traxIsRoughness: 0
    traxAO: {fileID: 0}
    traxAOChannel: 1
    splat: {fileID: 0}
  - substance: {fileID: 0}
    diffuse: {fileID: 0}
    height: {fileID: 0}
    heightChannel: 1
    normal: {fileID: 0}
    smoothness: {fileID: 0}
    smoothnessChannel: 3
    isRoughness: 0
    ao: {fileID: 0}
    aoChannel: 1
    emis: {fileID: 0}
    metal: {fileID: 0}
    metalChannel: 1
    specular: {fileID: 0}
    noiseNormal: {fileID: 0}
    detailNoise: {fileID: 0}
    detailChannel: 1
    distanceNoise: {fileID: 0}
    distanceChannel: 1
    traxDiffuse: {fileID: 0}
    traxHeight: {fileID: 0}
    traxHeightChannel: 1
    traxNormal: {fileID: 0}
    traxSmoothness: {fileID: 0}
    traxSmoothnessChannel: 1
    traxIsRoughness: 0
    traxAO: {fileID: 0}
    traxAOChannel: 1
    splat: {fileID: 0}
  - substance: {fileID: 0}
    diffuse: {fileID: 0}
    height: {fileID: 0}
    heightChannel: 1
    normal: {fileID: 0}
    smoothness: {fileID: 0}
    smoothnessChannel: 3
    isRoughness: 0
    ao: {fileID: 0}
    aoChannel: 1
    emis: {fileID: 0}
    metal: {fileID: 0}
    metalChannel: 1
    specular: {fileID: 0}
    noiseNormal: {fileID: 0}
    detailNoise: {fileID: 0}
    detailChannel: 1
    distanceNoise: {fileID: 0}
    distanceChannel: 1
    traxDiffuse: {fileID: 0}
    traxHeight: {fileID: 0}
    traxHeightChannel: 1
    traxNormal: {fileID: 0}
    traxSmoothness: {fileID: 0}
    traxSmoothnessChannel: 1
    traxIsRoughness: 0
    traxAO: {fileID: 0}
    traxAOChannel: 1
    splat: {fileID: 0}
  sourceTextures3:
  - substance: {fileID: 0}
    diffuse: {fileID: 0}
    height: {fileID: 0}
    heightChannel: 2
    normal: {fileID: 0}
    smoothness: {fileID: 0}
    smoothnessChannel: 3
    isRoughness: 0
    ao: {fileID: 0}
    aoChannel: 1
    emis: {fileID: 0}
    metal: {fileID: 0}
    metalChannel: 1
    specular: {fileID: 0}
    noiseNormal: {fileID: 0}
    detailNoise: {fileID: 0}
    detailChannel: 1
    distanceNoise: {fileID: 0}
    distanceChannel: 1
    traxDiffuse: {fileID: 0}
    traxHeight: {fileID: 0}
    traxHeightChannel: 1
    traxNormal: {fileID: 0}
    traxSmoothness: {fileID: 0}
    traxSmoothnessChannel: 1
    traxIsRoughness: 0
    traxAO: {fileID: 0}
    traxAOChannel: 1
    splat: {fileID: 0}
  - substance: {fileID: 0}
    diffuse: {fileID: 0}
    height: {fileID: 0}
    heightChannel: 1
    normal: {fileID: 0}
    smoothness: {fileID: 0}
    smoothnessChannel: 3
    isRoughness: 0
    ao: {fileID: 0}
    aoChannel: 1
    emis: {fileID: 0}
    metal: {fileID: 0}
    metalChannel: 1
    specular: {fileID: 0}
    noiseNormal: {fileID: 0}
    detailNoise: {fileID: 0}
    detailChannel: 1
    distanceNoise: {fileID: 0}
    distanceChannel: 1
    traxDiffuse: {fileID: 0}
    traxHeight: {fileID: 0}
    traxHeightChannel: 1
    traxNormal: {fileID: 0}
    traxSmoothness: {fileID: 0}
    traxSmoothnessChannel: 1
    traxIsRoughness: 0
    traxAO: {fileID: 0}
    traxAOChannel: 1
    splat: {fileID: 0}
  - substance: {fileID: 0}
    diffuse: {fileID: 0}
    height: {fileID: 0}
    heightChannel: 1
    normal: {fileID: 0}
    smoothness: {fileID: 0}
    smoothnessChannel: 3
    isRoughness: 0
    ao: {fileID: 0}
    aoChannel: 1
    emis: {fileID: 0}
    metal: {fileID: 0}
    metalChannel: 1
    specular: {fileID: 0}
    noiseNormal: {fileID: 0}
    detailNoise: {fileID: 0}
    detailChannel: 1
    distanceNoise: {fileID: 0}
    distanceChannel: 1
    traxDiffuse: {fileID: 0}
    traxHeight: {fileID: 0}
    traxHeightChannel: 1
    traxNormal: {fileID: 0}
    traxSmoothness: {fileID: 0}
    traxSmoothnessChannel: 1
    traxIsRoughness: 0
    traxAO: {fileID: 0}
    traxAOChannel: 1
    splat: {fileID: 0}
  - substance: {fileID: 0}
    diffuse: {fileID: 0}
    height: {fileID: 0}
    heightChannel: 1
    normal: {fileID: 0}
    smoothness: {fileID: 0}
    smoothnessChannel: 3
    isRoughness: 0
    ao: {fileID: 0}
    aoChannel: 1
    emis: {fileID: 0}
    metal: {fileID: 0}
    metalChannel: 1
    specular: {fileID: 0}
    noiseNormal: {fileID: 0}
    detailNoise: {fileID: 0}
    detailChannel: 1
    distanceNoise: {fileID: 0}
    distanceChannel: 1
    traxDiffuse: {fileID: 0}
    traxHeight: {fileID: 0}
    traxHeightChannel: 1
    traxNormal: {fileID: 0}
    traxSmoothness: {fileID: 0}
    traxSmoothnessChannel: 1
    traxIsRoughness: 0
    traxAO: {fileID: 0}
    traxAOChannel: 1
    splat: {fileID: 0}
